{
	"providers": {
		"awscloudformation": {
			"AuthRoleName": "vocielink-platform-voice-20190724161737-authRole",
			"UnauthRoleArn": "arn:aws:iam::625714202007:role/vocielink-platform-voice-20190724161737-unauthRole",
			"AuthRoleArn": "arn:aws:iam::625714202007:role/vocielink-platform-voice-20190724161737-authRole",
			"Region": "us-east-2",
			"DeploymentBucketName": "vocielink-platform-voice-20190724161737-deployment",
			"UnauthRoleName": "vocielink-platform-voice-20190724161737-unauthRole",
			"StackName": "vocielink-platform-voice-20190724161737",
			"StackId": "arn:aws:cloudformation:us-east-2:625714202007:stack/vocielink-platform-voice-20190724161737/975b5910-ae00-11e9-9c28-020cf0d94894"
		}
	},
	"auth": {
		"vocielinkplatforma552c762": {
			"service": "Cognito",
			"providerPlugin": "awscloudformation",
			"dependsOn": [],
			"providerMetadata": {
				"s3TemplateURL": "https://s3.amazonaws.com/vocielink-platform-voice-20190724161737-deployment/amplify-cfn-templates/auth/vocielinkplatforma552c762-cloudformation-template.yml",
				"logicalId": "authvocielinkplatforma552c762"
			},
			"lastPushTimeStamp": "2019-07-24T10:54:45.354Z",
			"output": {
				"AppClientSecret": "18ibriq50t554i47om8c5ps0pc1qf78lpnvuvjtqosep2efadj8i",
				"UserPoolId": "us-east-2_b2RP80zQ5",
				"AppClientIDWeb": "1j24pdb3k3liq3o243i293d8ma",
				"AppClientID": "6fkuei701s0esh1us6gj1pga4m",
				"IdentityPoolId": "us-east-2:f498baa4-c491-4bfc-a409-799fbcf447a9",
				"IdentityPoolName": "vocielinkplatforma552c762_identitypool_a552c762__voice",
				"UserPoolName": "vocielinkplatforma552c762_userpool_a552c762"
			},
			"lastPushDirHash": "mMNJzurDxK9JrcpRf/qB389GT+g="
		}
	}
}