{
    "voice": {
        "awscloudformation": {
            "AuthRoleName": "vocielink-platform-voice-20190724161737-authRole",
            "UnauthRoleArn": "arn:aws:iam::625714202007:role/vocielink-platform-voice-20190724161737-unauthRole",
            "AuthRoleArn": "arn:aws:iam::625714202007:role/vocielink-platform-voice-20190724161737-authRole",
            "Region": "us-east-2",
            "DeploymentBucketName": "vocielink-platform-voice-20190724161737-deployment",
            "UnauthRoleName": "vocielink-platform-voice-20190724161737-unauthRole",
            "StackName": "vocielink-platform-voice-20190724161737",
            "StackId": "arn:aws:cloudformation:us-east-2:625714202007:stack/vocielink-platform-voice-20190724161737/975b5910-ae00-11e9-9c28-020cf0d94894"
        },
        "categories": {
            "auth": {
                "vocielinkplatforma552c762": {}
            }
        }
    }
}